%YAML 1.1
%TAG !u! tag:unity3d.com,2011:
--- !u!64 &1254815336603792575
MeshCollider:
  m_ObjectHideFlags: 0
  m_CorrespondingSourceObject: {fileID: 0}
  m_PrefabInstance: {fileID: 0}
  m_PrefabAsset: {fileID: 0}
  m_GameObject: {fileID: 8680609348361579074}
  m_Material: {fileID: 0}
  m_IsTrigger: 0
  m_Enabled: 1
  serializedVersion: 3
  m_Convex: 0
  m_CookingOptions: 30
  m_Mesh: {fileID: -462981019419857548, guid: 7c6e75790754fbb45b70e887fb72d2bf, type: 3}
--- !u!1001 &816933993592763211
PrefabInstance:
  m_ObjectHideFlags: 0
  serializedVersion: 2
  m_Modification:
    m_TransformParent: {fileID: 0}
    m_Modifications:
    - target: {fileID: -4216859302048453862, guid: 7c6e75790754fbb45b70e887fb72d2bf,
        type: 3}
      propertyPath: m_LocalPosition.x
      value: -32.75273
      objectReference: {fileID: 0}
    - target: {fileID: -4216859302048453862, guid: 7c6e75790754fbb45b70e887fb72d2bf,
        type: 3}
      propertyPath: m_LocalPosition.y
      value: 138.85077
      objectReference: {fileID: 0}
    - target: {fileID: -4216859302048453862, guid: 7c6e75790754fbb45b70e887fb72d2bf,
        type: 3}
      propertyPath: m_LocalPosition.z
      value: -111.07912
      objectReference: {fileID: 0}
    - target: {fileID: -4216859302048453862, guid: 7c6e75790754fbb45b70e887fb72d2bf,
        type: 3}
      propertyPath: m_LocalRotation.x
      value: -0.7071068
      objectReference: {fileID: 0}
    - target: {fileID: -4216859302048453862, guid: 7c6e75790754fbb45b70e887fb72d2bf,
        type: 3}
      propertyPath: m_LocalRotation.y
      value: 0
      objectReference: {fileID: 0}
    - target: {fileID: -4216859302048453862, guid: 7c6e75790754fbb45b70e887fb72d2bf,
        type: 3}
      propertyPath: m_LocalRotation.z
      value: -0
      objectReference: {fileID: 0}
    - target: {fileID: -4216859302048453862, guid: 7c6e75790754fbb45b70e887fb72d2bf,
        type: 3}
      propertyPath: m_LocalRotation.w
      value: 0.7071067
      objectReference: {fileID: 0}
    - target: {fileID: -4216859302048453862, guid: 7c6e75790754fbb45b70e887fb72d2bf,
        type: 3}
      propertyPath: m_RootOrder
      value: 0
      objectReference: {fileID: 0}
    - target: {fileID: -4216859302048453862, guid: 7c6e75790754fbb45b70e887fb72d2bf,
        type: 3}
      propertyPath: m_LocalEulerAnglesHint.x
      value: 0
      objectReference: {fileID: 0}
    - target: {fileID: -4216859302048453862, guid: 7c6e75790754fbb45b70e887fb72d2bf,
        type: 3}
      propertyPath: m_LocalEulerAnglesHint.y
      value: 0
      objectReference: {fileID: 0}
    - target: {fileID: -4216859302048453862, guid: 7c6e75790754fbb45b70e887fb72d2bf,
        type: 3}
      propertyPath: m_LocalEulerAnglesHint.z
      value: 0
      objectReference: {fileID: 0}
    - target: {fileID: -1504981713932161579, guid: 7c6e75790754fbb45b70e887fb72d2bf,
        type: 3}
      propertyPath: m_Materials.Array.data[0]
      value: 
      objectReference: {fileID: 2100000, guid: 1229e837cfe3941459541b8e71db515e, type: 2}
    - target: {fileID: -927199367670048503, guid: 7c6e75790754fbb45b70e887fb72d2bf,
        type: 3}
      propertyPath: m_Name
      value: lotus
      objectReference: {fileID: 0}
    m_RemovedComponents: []
  m_SourcePrefab: {fileID: 100100000, guid: 7c6e75790754fbb45b70e887fb72d2bf, type: 3}
--- !u!1 &8680609348361579074 stripped
GameObject:
  m_CorrespondingSourceObject: {fileID: -927199367670048503, guid: 7c6e75790754fbb45b70e887fb72d2bf,
    type: 3}
  m_PrefabInstance: {fileID: 816933993592763211}
  m_PrefabAsset: {fileID: 0}
